<?xml version="1.0" standalone="no"?>
<!DOCTYPE svg PUBLIC "-//W3C//DTD SVG 20010904//EN"
 "http://www.w3.org/TR/2001/REC-SVG-20010904/DTD/svg10.dtd">
<svg version="1.0" xmlns="http://www.w3.org/2000/svg"
 width="128.000000pt" height="128.000000pt" viewBox="0 0 128.000000 128.000000"
 preserveAspectRatio="xMidYMid meet">
<metadata>
Created by potrace 1.14, written by Peter Selinger 2001-2017
</metadata>
<g transform="translate(0.000000,128.000000) scale(0.100000,-0.100000)"
fill="#000000" stroke="none">
<path d="M525 1163 c-16 -3 -68 -22 -114 -44 -139 -65 -247 -195 -286 -344
-19 -76 -19 -192 1 -261 32 -111 141 -234 259 -293 47 -23 47 -23 43 -70 l-3
-46 208 1 c114 1 210 4 213 7 3 3 5 24 6 46 0 41 2 43 57 71 119 60 217 178
248 296 13 52 14 133 2 244 -1 8 -18 52 -39 97 -65 141 -196 250 -344 287 -58
15 -180 19 -251 9z m200 -88 l31 -5 -1 -213 -1 -212 -114 -3 -115 -3 0 208 c0
114 4 213 7 218 4 6 24 12 44 13 21 2 40 4 41 6 4 4 63 -1 108 -9z m-290 -232
l0 -198 -118 -3 c-124 -3 -121 -4 -117 48 8 110 79 231 183 310 29 21 52 39
52 39 0 1 0 -88 0 -196z m518 108 c66 -62 110 -153 126 -258 l8 -53 -121 0
-121 0 0 199 0 198 35 -25 c19 -14 52 -42 73 -61z m86 -462 c-39 -72 -116
-144 -203 -190 -76 -40 -70 -34 -71 -72 l-1 -32 -122 0 c-67 0 -122 2 -123 5
-1 3 -2 17 -3 33 -3 33 3 27 -72 66 -87 46 -164 118 -203 190 l-32 61 431 0
431 0 -32 -61z"/>
</g>
</svg>
